Art,Design and Vocation are all Different – My-Peasant-Blog
…
3.9 is the F-statistic for the test of dependence between Score and Degree.

null_dist_infer <- grades_modified %>%
  specify(Score ~ Degree) %>%
  hypothesise(null = "independence") %>%
  generate(reps = 4999, type = "permute") %>%
  calculate(stat = "F")
##
null_dist_infer

Response: Score (numeric)
Explanatory: Degree (factor)
Null Hypothesis: independence
# A tibble: 4,999 × 2
   replicate  stat
       <int> <dbl>
 1         1 2.60 
 2         2 1.08 
 3         3 0.523
 4         4 2.89 
 5         5 0.331
 6         6 3.04 
 7         7 1.00 
 8         8 0.836
 9         9 0.695
10        10 0.675
# ℹ 4,989 more rows
…
